\relax 
\@writefile{toc}{\contentsline {section}{\numberline {1}Introduzione}{1}}
\@writefile{toc}{\contentsline {section}{\numberline {2}Post Processing}{3}}
\@writefile{lof}{\contentsline {figure}{\numberline {1}{\ignorespaces Esempio di composizione in falsi colori della mappa di profondit\IeC {\`a}\relax }}{3}}
\providecommand*\caption@xref[2]{\@setref\relax\@undefined{#1}}
\newlabel{fig:depthframe}{{1}{3}}
\@writefile{lof}{\contentsline {figure}{\numberline {2}{\ignorespaces Esempio di composizione in falsi colori dei vettori normali alle superfici, xyz $\rightarrow $ RGB\relax }}{4}}
\newlabel{fig:normalframe}{{2}{4}}
\@writefile{lof}{\contentsline {figure}{\numberline {3}{\ignorespaces Dettaglio su normal frame con una angolazione di 45\degree  ca. rispetto al pavimento. Si possono notare anche le barre verticale date dalla creazione di questa immagine\relax }}{5}}
\newlabel{fig:normalframe-angle}{{3}{5}}
\@writefile{toc}{\contentsline {subsection}{\numberline {2.1}Segmentazione delle superfici orizzontali}{6}}
\newlabel{fig:section-normal-frame-subcaption}{{4a}{6}}
\newlabel{sub@fig:section-normal-frame-subcaption}{{a}{6}}
\newlabel{fig:section-normal-frame-histogram}{{4b}{6}}
\newlabel{sub@fig:section-normal-frame-histogram}{{b}{6}}
\@writefile{lof}{\contentsline {figure}{\numberline {4}{\ignorespaces Dettaglio del frame in falso colore dei vettori normali e del rispettivo istogramma\relax }}{6}}
\newlabel{fig:section-normal-frame}{{4}{6}}
\@writefile{toc}{\contentsline {subsection}{\numberline {2.2}Filtri mediani e morfologici}{6}}
\@writefile{lof}{\contentsline {figure}{\numberline {5}{\ignorespaces Estrazione delle superfici orizzontali sfruttando solo la componente y del vettore normale\relax }}{7}}
\newlabel{fig:horrizontal-no-filter}{{5}{7}}
\newlabel{fig:horr-anche-dopo-mediano}{{6b}{8}}
\newlabel{sub@fig:horr-anche-dopo-mediano}{{b}{8}}
\@writefile{lof}{\contentsline {figure}{\numberline {6}{\ignorespaces \relax }}{8}}
\newlabel{fig:horr-finito-filtraggio}{{6}{8}}
\@writefile{toc}{\contentsline {section}{\numberline {3}Individuazione percorso migliore}{9}}
\@writefile{lof}{\contentsline {figure}{\numberline {7}{\ignorespaces Le linee rosse rappresentano i pixel attraverso i quali viene fatta una prima stima della distanza\relax }}{10}}
\newlabel{fig:linee-di-ricerca}{{7}{10}}
\@writefile{lof}{\contentsline {figure}{\numberline {8}{\ignorespaces Composizione del frame segmentato e delle linee di ricerca per il percorso ottimale\relax }}{12}}
\newlabel{fig:immagine-con-linee}{{8}{12}}
\@writefile{lof}{\contentsline {figure}{\numberline {9}{\ignorespaces Sovra-impressione della mappa di profondit\IeC {\`a} e delle superfici orizzontali segmentate\relax }}{12}}
\newlabel{fig:imm-linee-piu-profondita}{{9}{12}}
\@writefile{toc}{\contentsline {section}{\numberline {4}L'Applicazione}{13}}
\@writefile{lof}{\contentsline {figure}{\numberline {10}{\ignorespaces Screenshot dell'interfaccia grafica\relax }}{14}}
\newlabel{fig:screenshot-gui}{{10}{14}}
\@writefile{lof}{\contentsline {figure}{\numberline {11}{\ignorespaces Utilizzo medio della CPU e della memoria RAM\relax }}{14}}
\newlabel{fig:cpu-mem}{{11}{14}}
\@writefile{toc}{\contentsline {section}{\numberline {5}Conclusioni}{14}}
